#--------------------------------------------------------------------------------------
# Summary:  Builds the boundary conditions
#
# Description:
#     The function build_bc constructs the boundary conditions from the files in
#     mnh_dir.
#
# Input:
#     mnh_dir        Directory containing all necessary file to construct the boundary
#                    conditions.
#
# Output:
#     h_bc           Handle on the constructed boundary_condition.
#
# Notes:
#--------------------------------------------------------------------------------------
function build_bc(dyn_dir, stat_dir, name_cnd, name_bnd)

    assert_symbol(dyn_dir, 'build_bc: Undefined symbol: dyn_dir')
    assert_symbol(stat_dir, 'build_bc: Undefined symbol: stat_dir')
    assert_symbol(name_cnd, 'build_bc: Undefined symbol: name_cnd')
    assert_symbol(name_bnd, 'build_bc: Undefined symbol: name_bnd')

    h_lmt  = boundary (stat_dir+name_bnd)
    h_cnd  = condition(dyn_dir+name_cnd)
    #h_cnd = condition(build_cnd_list(), 'r')
    #h_cnd = condition('/share/data2/gosselre/SHOP/data/flowrates', 'mnh_sv2d.cnd', 1)
    h_bc   = boundary_condition(h_lmt, h_cnd)

    build_bc = h_bc
endfunction

function build_bc_cd2d(stat_dir, name_cnd, name_bnd) # A REVISER


    assert_symbol(stat_dir, 'build_bc: Undefined symbol: stat_dir')
    assert_symbol(name_cnd, 'build_bc: Undefined symbol: name_cnd')
    assert_symbol(name_bnd, 'build_bc: Undefined symbol: name_bnd')

    h_lmt  = boundary (stat_dir+name_bnd)
    h_cnd  = condition(stat_dir+name_cnd)
    h_bc   = boundary_condition(h_lmt, h_cnd)

    build_bc_cd2d = h_bc
endfunction

